; Engine configuration file.
; It's best edited using the editor UI and not directly,
; since the parameters that go here are not all obvious.
;
; Format:
;   [section] ; section goes between []
;   param=value ; assign values to parameters

config_version=4

_global_script_classes=[ {
"base": "Control",
"class": "Barre",
"language": "GDScript",
"path": "res://barre/Barre.gd"
}, {
"base": "Node2D",
"class": "Game",
"language": "GDScript",
"path": "res://Scripts/Game.gd"
}, {
"base": "TileMap",
"class": "Hypotheses",
"language": "GDScript",
"path": "res://hypotheses/Hypotheses.gd"
} ]
_global_script_class_icons={
"Barre": "",
"Game": "",
"Hypotheses": ""
}

[application]

config/name="The Cartographer"
run/main_scene="res://menu/Menu.tscn"
boot_splash/image="res://Assets/wallpaper.png"
config/icon="res://icon.png"

[autoload]

Global="*res://singletons/Global.tscn"

[debug]

gdscript/warnings/return_value_discarded=false

[display]

mouse_cursor/custom_image="res://Assets/cursor.png"
window/stretch/mode="2d"
window/stretch/aspect="keep"

[input]

ui_select={
"deadzone": 0.5,
"events": [ Object(InputEventMouseButton,"resource_local_to_scene":false,"resource_name":"","device":0,"alt":false,"shift":false,"control":false,"meta":false,"command":false,"button_mask":0,"position":Vector2( 0, 0 ),"global_position":Vector2( 0, 0 ),"factor":1.0,"button_index":1,"pressed":false,"doubleclick":false,"script":null)
 ]
}
ui_unselect={
"deadzone": 0.5,
"events": [ Object(InputEventMouseButton,"resource_local_to_scene":false,"resource_name":"","device":0,"alt":false,"shift":false,"control":false,"meta":false,"command":false,"button_mask":0,"position":Vector2( 0, 0 ),"global_position":Vector2( 0, 0 ),"factor":1.0,"button_index":2,"pressed":false,"doubleclick":false,"script":null)
 ]
}

[rendering]

environment/default_clear_color=Color( 0.0196078, 0.0392157, 0.0941176, 1 )
environment/default_environment="res://default_env.tres"
