[gd_scene load_steps=2 format=2]

[ext_resource path="res://singletons/Global.gd" type="Script" id=1]

[node name="Global" type="Node"]
script = ExtResource( 1 )
colorRankS = Color( 1, 0.72549, 0, 1 )
colorRankA = Color( 0.294118, 0.639216, 0.223529, 1 )
colorRankB = Color( 1, 0.513726, 0, 1 )
colorRankC = Color( 0.568627, 0.0784314, 0.0784314, 1 )
