[gd_resource type="TileSet" load_steps=4 format=2]

[ext_resource path="res://Assets/Tilemap/Cave/ground.png" type="Texture" id=1]
[ext_resource path="res://Assets/Tilemap/Cave/trap.png" type="Texture" id=2]
[ext_resource path="res://Assets/Tilemap/Cave/wall.png" type="Texture" id=3]

[resource]
0/name = "ground"
0/texture = ExtResource( 1 )
0/tex_offset = Vector2( 0, 0 )
0/modulate = Color( 1, 1, 1, 1 )
0/region = Rect2( 0, 0, 64, 42 )
0/tile_mode = 0
0/occluder_offset = Vector2( 32, 21 )
0/navigation_offset = Vector2( 32, 21 )
0/shapes = [  ]
0/z_index = 0
1/name = "trap"
1/texture = ExtResource( 2 )
1/tex_offset = Vector2( 0, 0 )
1/modulate = Color( 1, 1, 1, 1 )
1/region = Rect2( 0, 0, 64, 42 )
1/tile_mode = 0
1/occluder_offset = Vector2( 32, 21 )
1/navigation_offset = Vector2( 32, 21 )
1/shapes = [  ]
1/z_index = 0
2/name = "wall"
2/texture = ExtResource( 3 )
2/tex_offset = Vector2( 0, -84 )
2/modulate = Color( 1, 1, 1, 1 )
2/region = Rect2( 0, 0, 64, 128 )
2/tile_mode = 0
2/occluder_offset = Vector2( 32, 64 )
2/navigation_offset = Vector2( 32, 64 )
2/shapes = [  ]
2/z_index = 0
