[gd_resource type="ShaderMaterial" load_steps=5 format=2]

[ext_resource path="res://shaders/fire.shader" type="Shader" id=1]
[ext_resource path="res://Assets/fire/noise1.png" type="Texture" id=2]
[ext_resource path="res://Assets/fire/noise2.png" type="Texture" id=3]
[ext_resource path="res://Assets/fire/truc.png" type="Texture" id=4]

[resource]
shader = ExtResource( 1 )
shader_param/color1 = Color( 1, 0.815686, 0.321569, 1 )
shader_param/color2 = Color( 1, 0.670588, 0.203922, 1 )
shader_param/color3 = Color( 1, 0, 0, 1 )
shader_param/s1 = 0.411
shader_param/s2 = 0.162
shader_param/n1 = ExtResource( 2 )
shader_param/n2 = ExtResource( 3 )
shader_param/n3 = ExtResource( 4 )
