[gd_scene load_steps=3 format=2]

[ext_resource path="res://Assets/Tilemap/Cave/cave_terrain.tres" type="TileSet" id=1]
[ext_resource path="res://Assets/Tilemap/Cave/cave_objects.tres" type="TileSet" id=2]

[node name="Lvl3" type="Node2D"]
scale = Vector2( 0.7, 0.7 )

[node name="BackGround" type="TileMap" parent="."]
mode = 1
tile_set = ExtResource( 1 )
cell_size = Vector2( 64, 30 )
cell_y_sort = true
format = 1
tile_data = PoolIntArray( -524296, 536870914, 0, -524295, 536870914, 0, -524294, 536870914, 0, -524292, 0, 0, -524290, 536870914, 0, -524289, 536870914, 0, -589824, 536870914, 0, -458761, 536870914, 0, -458760, 536870912, 0, -458759, 536870912, 0, -458758, 536870912, 0, -458756, 0, 0, -458754, 536870912, 0, -458753, 536870912, 0, -524288, 536870912, 0, -393226, 536870914, 0, -393225, 536870912, 0, -393224, 536870912, 0, -393223, 536870912, 0, -393222, 536870912, 0, -393220, 0, 0, -393218, 536870912, 0, -393217, 536870912, 0, -458752, 536870912, 0, -458751, 536870912, 0, -458749, 536870914, 0, -327690, 536870914, 0, -327689, 536870912, 0, -327688, 536870912, 0, -327687, 536870912, 0, -327686, 536870912, 0, -327685, 536870912, 0, -327684, 536870912, 0, -327683, 536870912, 0, -327682, 536870912, 0, -327681, 536870912, 0, -393216, 536870912, 0, -393215, 536870912, 0, -393214, 536870912, 0, -393213, 536870912, 0, -393211, 536870914, 0, -262154, 536870914, 0, -262153, 536870912, 0, -262152, 536870912, 0, -262151, 536870912, 0, -262150, 536870912, 0, -262146, 536870912, 0, -262145, 536870912, 0, -327680, 536870912, 0, -327679, 536870912, 0, -327678, 536870912, 0, -327677, 536870912, 0, -327676, 536870912, 0, -327675, 536870912, 0, -196618, 536870914, 0, -196617, 536870912, 0, -196616, 536870912, 0, -196615, 536870912, 0, -196614, 536870912, 0, -196610, 536870912, 0, -196609, 536870912, 0, -262144, 536870912, 0, -262143, 536870912, 0, -262140, 536870912, 0, -262139, 536870912, 0, -262138, 536870912, 0, -131082, 536870914, 0, -131079, 536870912, 0, -131074, 536870912, 0, -131073, 536870912, 0, -196608, 536870912, 0, -196603, 536870912, 0, -196602, 536870912, 0, -196601, 536870912, 0, -65546, 536870914, 0, -65544, 536870912, 0, -65543, 536870912, 0, -65542, 536870912, 0, -65538, 536870914, 0, -65537, 536870912, 0, -131072, 536870912, 0, -131067, 536870912, 0, -131066, 536870912, 0, -131065, 536870912, 0, -10, 536870914, 0, -9, 536870912, 0, -8, 536870912, 0, -7, 536870912, 0, -6, 536870912, 0, -2, 536870914, 0, -1, 536870912, 0, -65536, 536870912, 0, -65531, 536870914, 0, -65530, 536870912, 0, -65529, 536870912, 0, 65528, 536870912, 0, 65529, 536870912, 0, 65530, 536870912, 0, 65531, 536870912, 0, 65532, 536870912, 0, 65534, 536870914, 0, 65535, 536870912, 0, 0, 536870912, 0, 4, 536870914, 0, 5, 536870912, 0, 6, 536870912, 0, 7, 536870912, 0, 8, 536870912, 0, 9, 536870912, 0, 10, 536870912, 0, 131063, 536870914, 0, 131064, 536870912, 0, 131065, 536870912, 0, 131066, 536870912, 0, 131067, 536870912, 0, 131068, 536870912, 0, 131071, 536870912, 0, 65536, 536870912, 0, 65540, 536870914, 0, 65541, 536870912, 0, 65542, 536870912, 0, 65543, 536870912, 0, 65544, 536870912, 0, 65545, 536870912, 0, 65546, 536870912, 0, 196601, 536870912, 0, 196602, 536870912, 0, 196603, 536870912, 0, 196604, 536870912, 0, 196605, 536870912, 0, 196606, 536870912, 0, 196607, 536870912, 0, 131072, 536870912, 0, 131076, 536870914, 0, 131077, 536870912, 0, 131078, 536870912, 0, 131079, 536870912, 0, 131080, 536870912, 0, 131081, 536870912, 0, 131082, 536870912, 0, 262138, 536870912, 0, 262139, 536870912, 0, 262140, 536870912, 0, 262141, 536870912, 0, 262142, 536870912, 0, 262143, 536870912, 0, 196608, 536870912, 0, 196612, 536870914, 0, 196613, 536870912, 0, 196614, 536870912, 0, 196615, 536870912, 0, 196616, 536870912, 0, 196617, 536870912, 0, 196618, 536870912, 0, 196619, 536870912, 0, 327675, 536870912, 0, 327676, 536870912, 0, 327677, 536870912, 0, 327678, 536870912, 0, 327679, 536870912, 0, 262144, 536870912, 0, 262145, 536870912, 0, 262148, 536870914, 0, 262149, 536870912, 0, 262150, 536870912, 0, 262151, 536870912, 0, 262152, 536870912, 0, 262154, 536870912, 0, 262155, 536870912, 0, 262156, 536870912, 0, 393212, 536870912, 0, 393213, 536870912, 0, 393214, 536870912, 0, 393215, 536870912, 0, 327680, 536870912, 0, 327681, 536870912, 0, 327682, 536870912, 0, 327684, 536870914, 0, 327685, 536870912, 0, 327686, 536870912, 0, 327687, 536870912, 0, 327688, 536870912, 0, 327690, 536870912, 0, 327691, 536870912, 0, 327692, 536870912, 0, 458747, 536870914, 0, 458748, 536870912, 0, 458749, 536870912, 0, 458750, 536870912, 0, 458751, 536870912, 0, 393216, 536870912, 0, 393217, 536870912, 0, 393218, 536870912, 0, 393222, 536870912, 0, 393225, 536870912, 0, 393226, 536870912, 0, 393227, 536870912, 0, 393228, 536870912, 0, 524286, 536870912, 0, 524287, 536870912, 0, 458752, 536870912, 0, 458753, 536870912, 0, 458754, 536870912, 0, 458755, 536870912, 0, 458756, 536870912, 0, 458757, 536870912, 0, 458758, 536870912, 0, 458759, 536870912, 0, 458760, 536870912, 0, 458761, 536870912, 0, 458762, 536870912, 0, 458763, 536870912, 0, 458764, 536870912, 0, 524288, 536870912, 0, 524289, 536870912, 0, 524290, 536870912, 0, 524291, 536870912, 0, 524292, 536870912, 0, 524293, 536870912, 0, 524294, 536870912, 0, 524295, 536870912, 0, 524296, 536870912, 0, 524297, 536870912, 0, 524298, 536870912, 0, 524299, 536870912, 0, 589824, 536870912, 0, 589825, 536870912, 0, 589826, 536870912, 0, 589827, 536870912, 0, 589828, 536870912, 0, 589829, 536870912, 0, 589830, 536870912, 0, 589831, 536870912, 0, 589832, 536870912, 0, 589833, 536870912, 0, 589834, 536870912, 0, 589835, 536870912, 0, 655361, 536870912, 0, 655362, 536870912, 0, 655363, 536870912, 0, 655364, 536870912, 0, 655365, 536870912, 0, 655366, 536870912, 0, 655367, 536870912, 0, 655368, 536870912, 0, 655369, 536870912, 0, 655370, 536870912, 0, 720899, 536870912, 0, 720900, 536870912, 0, 720901, 536870912, 0, 720902, 536870912, 0, 720903, 536870912, 0, 720904, 536870912, 0, 786436, 536870912, 0, 786437, 536870912, 0, 786438, 536870912, 0 )

[node name="Objects" type="TileMap" parent="."]
mode = 1
tile_set = ExtResource( 2 )
cell_size = Vector2( 64, 30 )
cell_y_sort = true
format = 1
tile_data = PoolIntArray( -524292, 0, 0, -458760, 3, 0, -458759, 0, 0, -458758, 3, 0, -458753, 536870914, 0, -327689, 2, 0, -393216, 3, 0, -393213, 1, 0, -196610, 1, 0, -262143, 1, 0, -196603, 4, 0, -8, 1, 0, -6, 1, 0, -1, 2, 0, 5, 3, 0, 10, 0, 0, 196602, 536870916, 0, 196606, 0, 0, 131080, 1, 0, 262140, 3, 0, 196619, 1, 0, 262149, 2, 0, 327688, 4, 0, 458751, 1, 0, 393218, 1, 0, 458752, 3, 0, 458764, 536870916, 0, 524295, 1, 0, 524298, 3, 0, 589828, 4, 0, 655369, 1, 0, 786437, 3, 0 )

[node name="Timer" type="Timer" parent="."]
wait_time = 90.0
one_shot = true
