[gd_resource type="StyleBoxTexture" load_steps=2 format=2]

[ext_resource path="res://Assets/menu/button_clicked.png" type="Texture" id=1]

[resource]
texture = ExtResource( 1 )
region_rect = Rect2( 0, 0, 66, 35 )
