[gd_scene load_steps=2 format=2]

[ext_resource path="res://menu/InventoryItemLineFont.tres" type="DynamicFont" id=1]

[node name="InventoryItemLine" type="HBoxContainer"]
margin_right = 51.0
margin_bottom = 14.0
__meta__ = {
"_edit_use_anchors_": false
}

[node name="nom" type="Label" parent="."]
margin_right = 46.0
margin_bottom = 22.0
custom_fonts/font = ExtResource( 1 )
custom_colors/font_color = Color( 1, 1, 1, 1 )
text = "Item"

[node name="quantite" type="Label" parent="."]
margin_left = 50.0
margin_right = 74.0
margin_bottom = 22.0
custom_fonts/font = ExtResource( 1 )
custom_colors/font_color = Color( 1, 1, 1, 1 )
text = "(1)"
